<svg width="48" height="48" xmlns="http://www.w3.org/2000/svg" fill="none">
 <g>
  <title>Layer 1</title>
  <path stroke="null" fill-rule="evenodd" clip-rule="evenodd" d="m32.19475,27.84964c0.02952,-0.07247 0.05308,-0.14379 0.07,-0.21568c0.00152,-0.00667 0.00315,-0.01323 0.00467,-0.01979c0.02147,-0.08972 0.04293,-0.17933 0.04293,-0.26848c0,-0.06718 -0.00723,-0.13435 -0.01867,-0.20096c-0.01505,-0.08972 -0.00665,-0.17945 0.01867,-0.26445l-0.00058,-4.41183c-0.15434,0.13734 -0.31826,0.27216 -0.50037,0.40295c-2.28029,1.68322 -6.80961,2.98834 -13.36314,2.98834c-6.58123,0 -11.12202,-1.31582 -13.39272,-3.00917c-0.15069,-0.10928 -0.28452,-0.22281 -0.41591,-0.33692c-0.00818,-0.00725 -0.01715,-0.01438 -0.02611,-0.0214c-0.01018,-0.00817 -0.02037,-0.01622 -0.02935,-0.02439l0,4.41241c0.02532,0.08501 0.03375,0.17473 0.01869,0.26445c-0.01085,0.0666 -0.01869,0.13378 -0.01869,0.20096c0,0.08846 0.02115,0.17749 0.04198,0.26514c0.00169,0.00713 0.00337,0.01426 0.00504,0.02128c0.01688,0.07189 0.04039,0.1439 0.06993,0.21579c0.02471,0.05878 0.05364,0.11767 0.08619,0.17645c0.041,0.07316 0.0862,0.1462 0.13925,0.21936c0.03978,0.05521 0.08499,0.10997 0.13202,0.16461c0.06691,0.07845 0.13804,0.15575 0.2188,0.23305c0.04486,0.0436 0.09429,0.08627 0.14362,0.12895l0.0131,0.01127c0.09886,0.08501 0.20194,0.16932 0.31707,0.25318c0.0341,0.02496 0.0702,0.04946 0.10633,0.07396c0.01625,0.01093 0.03251,0.02197 0.04859,0.03301c0.13624,0.09271 0.27849,0.18485 0.43462,0.27515c0.02555,0.01518 0.0525,0.02991 0.0794,0.04463c0.01625,0.00886 0.03249,0.01783 0.04839,0.02669c0.17963,0.10054 0.36709,0.19912 0.56963,0.2954c0.00948,0.00437 0.0192,0.00874 0.029,0.01311c0.01696,0.00759 0.03412,0.0153 0.05056,0.02324c0.22544,0.10514 0.46233,0.20855 0.71491,0.30839c0.00723,0.00299 0.01447,0.00598 0.0217,0.00828c1.36892,0.53914 3.12002,0.99259 5.16041,1.28982c0.01027,0.00173 0.02053,0.00299 0.0308,0.00414c0.39665,0.05705 0.80346,0.1087 1.22123,0.15391c0.03442,0.00357 0.06965,0.00656 0.10511,0.00955c0.03465,0.00299 0.06941,0.00598 0.10348,0.00943c0.36469,0.0375 0.73358,0.07201 1.11331,0.09927c0.10838,0.00782 0.21991,0.01334 0.33144,0.01875c0.0672,0.00334 0.1344,0.00656 0.20078,0.01035c0.07105,0.00403 0.14198,0.00817 0.21279,0.01242c0.21419,0.01254 0.4285,0.02519 0.64865,0.03278c0.47925,0.01668 0.96748,0.02611 1.46599,0.02611c0.4985,0 0.98673,-0.00943 1.4654,-0.02427c0.24009,-0.00828 0.47342,-0.0222 0.70709,-0.03612c0.05133,-0.00299 0.10278,-0.0061 0.15423,-0.00909c0.07408,-0.00449 0.1491,-0.00817 0.22411,-0.01173c0.10371,-0.00506 0.20743,-0.01012 0.30822,-0.01737c0.37974,-0.02738 0.74863,-0.06189 1.11331,-0.09927c0.03407,-0.00357 0.06883,-0.00644 0.10348,-0.00943c0.03535,-0.00299 0.0707,-0.00598 0.10511,-0.00955c0.41765,-0.04521 0.82457,-0.09628 1.22123,-0.15402c0.01015,-0.00173 0.02042,-0.00288 0.03057,-0.00414l0.00012,0c2.04043,-0.29712 3.79154,-0.75068 5.16046,-1.28971c0.00723,-0.00299 0.01447,-0.00541 0.0217,-0.00828c0.25258,-0.09985 0.48893,-0.20326 0.71491,-0.30851c0.00513,-0.0023 0.01027,-0.0046 0.01528,-0.00679c0.02158,-0.00966 0.0434,-0.01932 0.06428,-0.02945c0.20253,-0.09628 0.39,-0.19555 0.56966,-0.2954c0.01307,-0.00725 0.02637,-0.01449 0.03955,-0.02174c0.02987,-0.01633 0.05985,-0.03267 0.0882,-0.04958c0.15621,-0.09041 0.29842,-0.18244 0.43469,-0.27515c0.01132,-0.00782 0.02275,-0.01541 0.03407,-0.02312c0.04118,-0.02784 0.08213,-0.05556 0.12086,-0.08386c0.11503,-0.08386 0.21816,-0.16829 0.31697,-0.25329l0.00222,-0.00184c0.05355,-0.04636 0.1064,-0.09202 0.15458,-0.13838c0.08073,-0.0773 0.15189,-0.15517 0.21874,-0.23293c0.04702,-0.05475 0.09228,-0.10939 0.13206,-0.16472c0.05366,-0.07304 0.09881,-0.1462 0.13918,-0.21925c0.03255,-0.05889 0.06218,-0.11767 0.08621,-0.17657l-0.00003,0.00005zm0.1176,-8.10151l0,-4.41241c-0.05086,0.04555 -0.10675,0.09053 -0.16274,0.1355c-0.02357,0.01898 -0.04725,0.03796 -0.07058,0.05705c-0.01878,0.0153 -0.03698,0.0306 -0.05518,0.0459c-0.02427,0.02036 -0.04853,0.04072 -0.07443,0.06108c-0.18083,0.14091 -0.37612,0.27872 -0.58763,0.41365c-0.02567,0.01622 -0.05308,0.03232 -0.08061,0.04843c-0.01972,0.0115 -0.03955,0.02312 -0.05868,0.03485c-0.17721,0.10928 -0.36469,0.21568 -0.56173,0.31967c-0.07245,0.03865 -0.14595,0.07672 -0.22131,0.1148c-0.22003,0.11054 -0.4509,0.21752 -0.69379,0.32208c-0.01668,0.00725 -0.03267,0.01449 -0.04865,0.02186c-0.02217,0.01012 -0.04422,0.02025 -0.06766,0.02991c-0.28209,0.11825 -0.58285,0.23121 -0.89515,0.34049c-0.05518,0.01944 -0.11211,0.03807 -0.16916,0.05682c-0.03208,0.01047 -0.06416,0.02105 -0.09601,0.03175c-0.24838,0.08259 -0.50515,0.16162 -0.77102,0.23834c-0.03033,0.00863 -0.06055,0.01737 -0.09076,0.02611c-0.0651,0.01886 -0.1302,0.03761 -0.19739,0.0559c-0.35256,0.0957 -0.71666,0.18784 -1.09885,0.27216c-0.02695,0.00587 -0.05518,0.01139 -0.0833,0.01691c-0.0266,0.00518 -0.05308,0.01035 -0.07886,0.01587c-0.33692,0.07247 -0.68656,0.13965 -1.04577,0.20268c-0.1218,0.0214 -0.24534,0.04153 -0.36959,0.06177c-0.34229,0.05521 -0.69379,0.10583 -1.05487,0.15218c-0.04002,0.00506 -0.07921,0.01058 -0.1183,0.01599c-0.0518,0.00725 -0.1036,0.01438 -0.15714,0.02082c-0.44845,0.05349 -0.91265,0.09985 -1.38945,0.1385c-0.06603,0.00529 -0.13311,0.00966 -0.20031,0.01403c-0.05308,0.00357 -0.10628,0.00702 -0.15889,0.01093c-0.3816,0.02738 -0.77161,0.04992 -1.17059,0.06775l-0.01715,0.00081c-0.14011,0.00621 -0.27917,0.01242 -0.42115,0.0176c-0.51962,0.01725 -1.0488,0.02968 -1.59735,0.02968c-0.54855,0 -1.07773,-0.01242 -1.59735,-0.02968c-0.14536,-0.00518 -0.28734,-0.01162 -0.42967,-0.01806l-0.00863,-0.00035c-0.39899,-0.01783 -0.78899,-0.04038 -1.17059,-0.06775c-0.0406,-0.00288 -0.08155,-0.00552 -0.1225,-0.00828c-0.07956,-0.00518 -0.15913,-0.01047 -0.23671,-0.01668c-0.4768,-0.03922 -0.941,-0.08501 -1.38945,-0.1385c-0.05355,-0.00644 -0.10535,-0.01357 -0.15714,-0.02082c-0.0392,-0.00541 -0.0784,-0.01093 -0.1183,-0.01599c-0.36107,-0.04636 -0.71314,-0.09697 -1.05491,-0.15218c-0.12418,-0.02025 -0.24775,-0.04038 -0.36952,-0.06177c-0.35925,-0.06304 -0.70887,-0.13021 -1.04582,-0.20268c-0.0232,-0.00495 -0.0471,-0.00955 -0.07102,-0.01415c-0.03079,-0.00598 -0.06162,-0.01185 -0.09113,-0.01863c-0.38218,-0.08432 -0.74626,-0.17588 -1.09888,-0.27216c-0.06658,-0.01771 -0.13121,-0.03658 -0.19578,-0.05533c-0.03073,-0.00897 -0.06145,-0.01783 -0.09235,-0.02669c-0.26583,-0.07672 -0.52261,-0.15575 -0.77097,-0.23834c-0.0319,-0.0107 -0.06404,-0.02128 -0.09612,-0.03175c-0.05705,-0.01875 -0.11394,-0.03738 -0.1691,-0.05682c-0.31225,-0.10928 -0.61243,-0.22224 -0.89514,-0.34049c-0.02346,-0.00966 -0.04551,-0.01979 -0.06766,-0.02991c-0.01597,-0.00736 -0.032,-0.01461 -0.04867,-0.02186c-0.24293,-0.10399 -0.47379,-0.21154 -0.69381,-0.32208c-0.07535,-0.03807 -0.14829,-0.07615 -0.22123,-0.1148c-0.1971,-0.10456 -0.38458,-0.21096 -0.56179,-0.31967c-0.01917,-0.01173 -0.03897,-0.02335 -0.05873,-0.03485c-0.02749,-0.0161 -0.05492,-0.03221 -0.08052,-0.04843c-0.21158,-0.13493 -0.40687,-0.27342 -0.58771,-0.41365c-0.02946,-0.02289 -0.05666,-0.0459 -0.08387,-0.06879c-0.01512,-0.01277 -0.03024,-0.02542 -0.04573,-0.03819c-0.0233,-0.01909 -0.04696,-0.03807 -0.07062,-0.05717c-0.05593,-0.04498 -0.11183,-0.08984 -0.16266,-0.13539l0,4.41241c0.02532,0.08501 0.03375,0.17473 0.01869,0.26445c-0.01085,0.0666 -0.01869,0.13378 -0.01869,0.20096c0,0.08846 0.02115,0.17749 0.04199,0.26526c0.00168,0.00702 0.00336,0.01415 0.00503,0.02117c0.01688,0.07189 0.04039,0.1439 0.06993,0.21579c0.02471,0.05878 0.05364,0.11767 0.08619,0.17645c0.041,0.07316 0.0862,0.1462 0.13925,0.21936c0.03978,0.05521 0.08499,0.10997 0.13202,0.16461c0.06691,0.07845 0.13804,0.15575 0.2188,0.23305c0.04485,0.0436 0.09428,0.08627 0.1436,0.12883c0.00437,0.0038 0.00876,0.00759 0.01312,0.01139c0.09886,0.08501 0.20194,0.16944 0.31707,0.25318c0.0341,0.02508 0.07021,0.04946 0.10634,0.07396c0.01625,0.01093 0.0325,0.02197 0.04858,0.03301c0.13624,0.09271 0.27849,0.18485 0.43462,0.27515c0.02555,0.01518 0.0525,0.03002 0.0794,0.04463c0.01626,0.00886 0.03249,0.01783 0.04839,0.02669c0.17963,0.10054 0.36709,0.19912 0.56963,0.2954c0.00947,0.00437 0.01919,0.00874 0.02898,0.01311c0.01697,0.00759 0.03415,0.0153 0.05059,0.02324c0.22544,0.10514 0.46233,0.20855 0.71491,0.30839l0.00005,0c0.00721,0.00299 0.01443,0.00598 0.02165,0.0084c1.36892,0.53903 3.12002,0.99247 5.16041,1.28971c0.01027,0.00173 0.02053,0.00299 0.0308,0.00414c0.39665,0.05705 0.80346,0.1087 1.22123,0.15391c0.03442,0.00357 0.06976,0.00656 0.10511,0.00966c0.03465,0.00288 0.06941,0.00587 0.10348,0.00932c0.36469,0.0375 0.73358,0.07201 1.11331,0.09927c0.10826,0.00782 0.21991,0.01334 0.33144,0.01875c0.0672,0.00334 0.1344,0.00656 0.20078,0.01047c0.07105,0.00391 0.14186,0.00805 0.21279,0.01231c0.21419,0.01254 0.4285,0.02519 0.64865,0.03278c0.47925,0.01668 0.96748,0.02623 1.46599,0.02623c0.4985,0 0.98673,-0.00955 1.4654,-0.02439c0.24021,-0.00828 0.47342,-0.0222 0.70721,-0.03612c0.05133,-0.00299 0.10266,-0.0061 0.15411,-0.00909c0.07408,-0.00449 0.1491,-0.00817 0.22411,-0.01173c0.10371,-0.00506 0.20743,-0.01012 0.30822,-0.01737c0.37974,-0.02738 0.74863,-0.06189 1.11331,-0.09927c0.03407,-0.00357 0.06883,-0.00644 0.10348,-0.00943c0.03535,-0.00299 0.0707,-0.00598 0.10511,-0.00955c0.41765,-0.04521 0.82457,-0.09628 1.22123,-0.15402c0.01027,-0.00173 0.02042,-0.00288 0.03068,-0.00414c2.04043,-0.29712 3.79154,-0.75068 5.16046,-1.28971c0.00362,-0.0015 0.00723,-0.00276 0.01085,-0.00414c0.00362,-0.00138 0.00723,-0.00265 0.01085,-0.00414c0.25258,-0.09985 0.48893,-0.20326 0.71491,-0.30851c0.0266,-0.01185 0.05366,-0.02381 0.07956,-0.03623c0.20253,-0.09628 0.39,-0.19555 0.56966,-0.2954c0.01307,-0.00725 0.02625,-0.01449 0.03955,-0.02174c0.02987,-0.01633 0.05973,-0.03267 0.0882,-0.04958c0.15621,-0.0903 0.29842,-0.18244 0.43469,-0.27515c0.01132,-0.00771 0.02263,-0.01541 0.03407,-0.02312c0.04107,-0.02784 0.08201,-0.05544 0.12086,-0.08386c0.11503,-0.08386 0.21816,-0.16829 0.31697,-0.25318l0.00233,-0.00196c0.05343,-0.04636 0.10628,-0.09202 0.15446,-0.13838c0.08073,-0.0773 0.15189,-0.15506 0.21874,-0.23293c0.04702,-0.05475 0.09228,-0.10939 0.13206,-0.16472c0.05366,-0.07304 0.09881,-0.1462 0.13918,-0.21925c0.03255,-0.05889 0.06218,-0.11767 0.08621,-0.17657c0.02952,-0.07247 0.05308,-0.14379 0.07,-0.21568c0.00152,-0.00667 0.00315,-0.01323 0.00467,-0.01979c0.02147,-0.08972 0.04293,-0.17933 0.04293,-0.26848c0,-0.06718 -0.00723,-0.13435 -0.01867,-0.20096c-0.01505,-0.08972 -0.00665,-0.17945 0.01867,-0.26445l-0.00007,0.00003zm0,-6.66675c0,-2.10872 -5.69338,-4.45761 -13.86409,-4.45761c-8.17077,0 -13.86409,2.3489 -13.86409,4.45761c0,2.10872 5.69332,4.45761 13.86409,4.45761c8.17071,0 13.86409,-2.3489 13.86409,-4.45761zm-0.01925,21.59732c0.00478,-0.02738 0.01085,-0.05406 0.01925,-0.08029l-0.00058,-4.99779c-0.15434,0.13723 -0.31826,0.27216 -0.50037,0.40295c-2.28029,1.68322 -6.80961,2.98834 -13.36314,2.98834c-6.58123,0 -11.12202,-1.31582 -13.39272,-3.00917c-0.15069,-0.10928 -0.28452,-0.22281 -0.41591,-0.33692c-0.00818,-0.00725 -0.01715,-0.01438 -0.02611,-0.02151c-0.01018,-0.00805 -0.02037,-0.0161 -0.02935,-0.02427l0,5.00078c0.00784,0.02496 0.01447,0.05119 0.01928,0.07787c0.34179,2.0558 5.98688,4.25666 13.84481,4.25666c7.85794,0 13.50302,-2.20085 13.84484,-4.25666l0,0.00001z" fill="#007f00" id="svg_1"/>
  <path fill-rule="evenodd" clip-rule="evenodd" d="m33.58783,9.59093l0,7.53399c6.40845,-0.75881 10.43284,-2.32229 10.43284,-3.767c0,-1.44482 -4.02439,-3.00819 -10.43284,-3.767l0,0.00001zm0,8.69965l0,5.60444c2.33884,-0.27846 4.36428,-0.66444 5.99202,-1.11266l0.01472,-0.00403l0.01472,-0.00391c0.34284,-0.09484 0.66373,-0.19299 0.9707,-0.29292l0.02061,-0.0064c0.02944,-0.00925 0.05888,-0.01837 0.08725,-0.02798c0.27513,-0.0914 0.52964,-0.18564 0.77346,-0.28048l0.05379,-0.02063c0.04068,-0.01553 0.08109,-0.03106 0.1199,-0.04718c0.21196,-0.08571 0.40493,-0.17319 0.59013,-0.26127l0.04603,-0.02181c0.05594,-0.02644 0.1116,-0.05275 0.16433,-0.07978c0.1563,-0.07954 0.29627,-0.15968 0.43035,-0.24041l0.00321,-0.0019l0,0c0.07253,-0.04398 0.14425,-0.08737 0.20956,-0.13123c0.10973,-0.07338 0.20634,-0.14735 0.29707,-0.22132c0.06396,-0.05192 0.12525,-0.10385 0.17931,-0.15624c0.0728,-0.06947 0.13408,-0.13893 0.18895,-0.20828c0.04443,-0.05583 0.0843,-0.11179 0.11722,-0.16762c0.04014,-0.06887 0.07199,-0.13656 0.09474,-0.20485l0.00642,-0.01885c0.02917,-0.08512 0.05834,-0.17023 0.05834,-0.25487c0,-0.06378 -0.0099,-0.12755 -0.02543,-0.19074c-0.02034,-0.08523 -0.00883,-0.17047 0.02543,-0.2512l0,-4.18985c-0.06905,0.04315 -0.14479,0.08583 -0.2208,0.12862l-0.00027,0.00012c-0.03212,0.01802 -0.06423,0.03604 -0.09554,0.05406c-0.02569,0.01458 -0.05031,0.02904 -0.0752,0.04351l0,0c-0.03292,0.01944 -0.06584,0.03876 -0.1009,0.05809c-0.24542,0.13372 -0.51064,0.26471 -0.79808,0.39286c-0.03452,0.01541 -0.07199,0.03058 -0.10919,0.04588c-0.02676,0.01102 -0.05379,0.02205 -0.07975,0.03307c-0.2406,0.10385 -0.49512,0.20485 -0.76275,0.30359c-0.09822,0.03675 -0.19805,0.07291 -0.30028,0.10894c-0.29895,0.10503 -0.61234,0.20662 -0.94207,0.30596c-0.02275,0.00688 -0.04443,0.01375 -0.06611,0.02075c-0.03024,0.0096 -0.05995,0.01909 -0.09207,0.02833c-0.38298,0.11226 -0.79139,0.21954 -1.21532,0.32339c-0.07494,0.01837 -0.15202,0.03616 -0.22963,0.05394c-0.04362,0.00996 -0.08725,0.02003 -0.13034,0.03011c-0.33722,0.07848 -0.68594,0.15352 -1.04698,0.2263l-0.12311,0.02478c-0.08832,0.0179 -0.1769,0.0358 -0.2679,0.05311c-0.47879,0.09092 -0.97338,0.17841 -1.49205,0.25855c-0.03667,0.00545 -0.07494,0.01067 -0.11294,0.01588l-0.00027,0.00012l0,0c-0.03613,0.00486 -0.07226,0.00984 -0.10705,0.01506c-0.45738,0.06876 -0.93216,0.13253 -1.42006,0.1924c-0.1654,0.02027 -0.33293,0.03948 -0.50154,0.05868l-0.14265,0.01588l0.00002,-0.00001zm0,6.77566l0,5.60124c2.33884,-0.27858 4.36428,-0.66444 5.99202,-1.11266l0.01472,-0.00403l0.01472,-0.00391c0.34284,-0.09484 0.66373,-0.19299 0.9707,-0.29292l0.02088,-0.00652l0,0c0.02917,-0.00913 0.05861,-0.01837 0.08698,-0.02786c0.27513,-0.09152 0.52964,-0.18576 0.77346,-0.28048l0.05379,-0.02063c0.04068,-0.01553 0.08109,-0.03106 0.1199,-0.04718c0.21196,-0.08571 0.40493,-0.17319 0.59013,-0.26127l0.0463,-0.02193c0.05567,-0.02644 0.11133,-0.05263 0.16406,-0.07966c0.1563,-0.07954 0.29627,-0.15968 0.43035,-0.24041l0.00294,-0.00178l0.00027,-0.00012c0.07253,-0.04398 0.14425,-0.08737 0.20956,-0.13135c0.10973,-0.07326 0.20634,-0.14723 0.29707,-0.2212c0.06396,-0.05192 0.12525,-0.10385 0.17931,-0.15636c0.0728,-0.06935 0.13408,-0.13882 0.18895,-0.20816c0.04443,-0.05595 0.0843,-0.11179 0.11722,-0.16762c0.04014,-0.06887 0.07199,-0.13656 0.09474,-0.20485l0.00642,-0.01885c0.02917,-0.08512 0.05834,-0.17023 0.05834,-0.25487c0,-0.06378 -0.0099,-0.12755 -0.02543,-0.19086c-0.02034,-0.08512 -0.00883,-0.17035 0.02543,-0.25108l-0.0008,-4.18937c-0.20956,0.1304 -0.43223,0.25855 -0.67925,0.38266c-2.00189,1.03335 -5.28038,1.91675 -9.75278,2.41203zm0,6.77246l0,5.60006c6.10469,-0.72644 10.07662,-2.18442 10.40661,-3.5727c0.00669,-0.02596 0.01472,-0.05145 0.02623,-0.07622l-0.0008,-4.74582c-0.20956,0.1304 -0.43223,0.25855 -0.67925,0.38266c-2.00189,1.03335 -5.28038,1.91675 -9.75278,2.41203l-0.00001,-0.00001z" fill="#007f00" id="svg_4" stroke="null"/>
  <path fill="#00bf5f" opacity="NaN" d="m29.64355,20.63367" id="svg_5"/>
 </g>

</svg>